[gd_scene load_steps=2 format=2]

[ext_resource path="res://objects/pieces/processes/Process.gd" type="Script" id=1]

[node name="Process" type="Node"]
script = ExtResource( 1 )

[node name="Timer" type="Timer" parent="."]

