[gd_scene load_steps=4 format=2]

[ext_resource path="res://objects/pieces/Piece.gd" type="Script" id=1]
[ext_resource path="res://icon.png" type="Texture" id=2]
[ext_resource path="res://objects/pieces/processes/Process.tscn" type="PackedScene" id=3]

[node name="Piece" type="Node2D" groups=[
"pieces",
]]
script = ExtResource( 1 )

[node name="Pivot" type="Position2D" parent="."]

[node name="Sprite" type="Sprite" parent="Pivot"]
texture = ExtResource( 2 )

[node name="Area2D" type="Area2D" parent="."]

[node name="CollisionPolygon2D" type="CollisionPolygon2D" parent="Area2D"]
polygon = PoolVector2Array( -24, -24, 24, -24, 24, 24, -24, 24 )

[node name="Process" parent="." instance=ExtResource( 3 )]

[node name="Input" type="Area2D" parent="."]
rotation = -3.14159

[node name="CollisionPolygon2D2" type="CollisionPolygon2D" parent="Input"]
position = Vector2( -4.76837e-06, 56 )
rotation = -3.14159
polygon = PoolVector2Array( -8, 16, 8, 16, 8, 24, -8, 24 )

[node name="Output" type="Area2D" parent="."]
rotation = -3.14159

[node name="CollisionPolygon2D2" type="CollisionPolygon2D" parent="Output"]
position = Vector2( 4.89567e-06, -56 )
rotation = -3.14159
polygon = PoolVector2Array( -8, -24, 8, -24, 8, -16, -8, -16 )

