[gd_scene load_steps=3 format=2]

[ext_resource path="res://objects/pieces/Piece.tscn" type="PackedScene" id=1]
[ext_resource path="res://icon.png" type="Texture" id=2]

[node name="Piece" instance=ExtResource( 1 )]

[node name="Sprite2" type="Sprite" parent="Pivot" index="1"]
position = Vector2( 64, 0 )
texture = ExtResource( 2 )

[node name="Sprite3" type="Sprite" parent="Pivot" index="2"]
position = Vector2( -64, 0 )
texture = ExtResource( 2 )

[node name="Sprite4" type="Sprite" parent="Pivot" index="3"]
position = Vector2( 0, 64 )
texture = ExtResource( 2 )

[node name="CollisionPolygon2D" parent="Area2D" index="0"]
polygon = PoolVector2Array( -88, -24, -88, 24, -40, 24, -24, 24, -24, 40, -24, 88, 24, 88, 24, 40, 24, 24, 40, 24, 88, 24, 88, -24, 40, -24, 24.221, -24, -24, -24, -40, -24 )

[node name="CollisionPolygon2D2" parent="Input" index="0"]
position = Vector2( -8.00002, -7.99998 )
polygon = PoolVector2Array( -80.0002, -47.9996, -80.0002, -39.9996, -64.0002, -39.9997, -64.0002, -47.9997 )

[node name="CollisionPolygon2D" type="CollisionPolygon2D" parent="Input" index="1"]
polygon = PoolVector2Array( -55.9999, 40.0001, -55.9999, 32.0001, -71.9999, 32.0002, -71.9999, 40.0002 )

[node name="CollisionPolygon2D2" parent="Output" index="0"]
position = Vector2( -0.000324503, -128 )

